…
2.  Sort rows by patient’s age at BMT

3.  Create a column called `los` to represent of the hospital length of
    stay for each patient. This is calculated as
    `discharge.day-admit.day+1`.

4.  Create a column called `has.leukemia` which is `TRUE` the patient’s
    primary diagnosis is leukemia, and `FALSE` otherwise.

5.  Keep these columns: `Patient_ID`, `agebmt`, `sex`, `bmt.cord`,
    `los`, `has.leukemia` … remove everything else.

<!-- -->

    ## # A tibble: 10 x 6
    ##   Patient_ID agebmt sex    bmt.cord   los has.leukemia
    ##   <chr>       <dbl> <chr>  <lgl>    <dbl> <lgl>       
    ## 1 232            23 Female TRUE        82 TRUE        
    ## 2 305            29 Female TRUE        50 FALSE       
    ## 3 311            38 Female TRUE        64 FALSE       
    ## 4 303            41 Female TRUE        45 TRUE        
    ## 5 312            46 Female TRUE        52 FALSE       
    ## 6 318            57 Female TRUE        32 TRUE        
    ## 7 191            58 Female TRUE        59 TRUE        
    ## 8 200            63 Female TRUE        56 FALSE       
    ## # ... with 2 more rows

### Question 4

In the `cid.bsi` data, addcolumns to the data in order to show age and
sex for each row (hint: use left\_join).

    ## # A tibble: 138 x 6
    ##   Patient_ID organism               startday endday agebmt sex   
    ##   <chr>      <chr>                     <dbl>  <dbl>  <dbl> <chr> 
    ## 1 228        CNST                         17     17     65 Male  
    ## 2 228        CNST                        247    247     65 Male  
    ## 3 191        Klebsiella pneumoniae         4      4     58 Female
    ## 4 308        CNST                        166    166     60 Female
    ## 5 308        Enterococcus faecalis       166    166     60 Female
    ## 6 308        Pseudomonas aeruginosa      166    166     60 Female
    ## 7 308        Pseudomonas aeruginosa      168    168     60 Female
    ## 8 152        CNST                         90     90     64 Female
    ## # ... with 130 more rows
…
    ## # A tibble: 3 x 4
    ##   disease.risk mean.age mean.los over60
    ##   <fct>           <dbl>    <dbl>  <dbl>
    ## 1 Low              51.7     44.6 0.407 
    ## 2 Intermediate     47.2     39.6 0.0870
    ## 3 High             50.9     38.5 0.227

### Question 6

Modify `cid.cdiff` so that it lists whether or not the C.diff infection
occurred during inpatient or outpatient.

    ## # A tibble: 37 x 4
    ##   Patient_ID   day method           inpatient 
    ##   <chr>      <dbl> <fct>            <chr>     
    ## 1 112           -1 PCR              inpatient 
    ## 2 142           -2 PCR              inpatient 
    ## 3 145           35 GDH/Cytotoxicity inpatient 
    ## 4 145          172 GDH/Cytotoxicity inpatient 
    ## 5 152          130 GDH/Cytotoxicity inpatient 
    ## 6 152          155 GDH/Cytotoxicity outpatient
    ## 7 152          218 GDH/Cytotoxicity inpatient 
    ## 8 153           -1 PCR              inpatient 
    ## # ... with 29 more rows

### Question 7

Using `cid.bsi`, create a data frame that lists for each patient: (1)
Patient\_ID, (2) age, (3) sex, (4) number of positive blood cultures,
(5) number of distinct organisms, (6) a character listing each distinct
bloodstream organism seen, separated by commas and listed in the order
they first occurred. If a patient did not have positive blood cultures,
state ‘<none>’.

    ## # A tibble: 94 x 6
    ##   Patient_ID agebmt sex    n.poscultures n.orgs org.list                                            
    ##   <chr>       <dbl> <chr>          <dbl>  <dbl> <chr>                                               
    ## 1 112            37 Male               1      1 Bacillus species                                    
    ## 2 114            61 Male               3      3 Fusobacterium species,Leptotrichia trevisanii,Staph~
    ## 3 121            50 Male               2      2 CNST,Staphylococcus aureus oxacillin resistant      
    ## 4 133            54 Female             1      1 CNST                                                
    ## 5 143            25 Male               2      2 Klebsiella pneumoniae,Serratia marcescens           
    ## 6 145            39 Male               7      3 Micrococcus species,CNST,Corynebacterium striatum/a~
    ## 7 152            64 Female             5      2 VRE,CNST                                            
    ## 8 153            62 Female             2      2 VRE,E. coli                                         
    ## # ... with 86 more rows

### Question 8

Create a data frame that lists the number of days each IV antibacterial
drug was given, for each patient.

    ## # A tibble: 89 x 29
    ##   Patient_ID Vancomycin Ciprofloxacin Zosyn Cefepime Metronidazole Azithromycin Aztreonam `TMP-SMX`
    ##   <chr>           <dbl>         <dbl> <dbl>    <dbl>         <dbl>        <dbl>     <dbl>     <dbl>
    ## 1 228                29             9    14       18             3            5         6         0
    ## 2 307                 0             0     3        0             0            1         0         4
    ## 3 191                50             0    42        1             0            0         0         0
    ## 4 308                22            41    53        6             0            0         0         5
    ## 5 320                52            43     2       13            17            0         0         5
    ## 6 194                55             1     0       41             0            4        45         5
    ## 7 152                40            35    63        5             3           16         0         4
    ## 8 309                58            29    62       19             0            0         0         5
    ## # ... with 81 more rows
…
