…
Use `lda.effect` to test the effect of the variable `metronidazole`.
First it will perform Kruskal-Wallis testing of abundances for each
taxonomic feature. Specify `subclass="sex"` to perform additional
Wilcoxon testing of various subsets across `sex`. Finally, a linear
discriminant analysis (LDA) is performed on taxonomic features selected
by the above testing steps. From this, an effect size is calculated.

``` r
lda <- lda.effect(phy,class="metronidazole",subclass="sex")
lda
```

    ## # A tibble: 1,071 x 8
    ##   taxonomy                                rank pass    lda direction    kw.pvalue log.max info      
    ##   <chr>                                  <int> <lgl> <dbl> <chr>            <dbl>   <dbl> <chr>     
    ## 1 Bacteria                                   1 FALSE    NA metronidazo~   NaN       6     FAIL: KW:~
    ## 2 Bacteria|Acidobacteria                     2 FALSE    NA no metronid~     0.748   0.398 FAIL: KW:~
    ## 3 Bacteria|Acidobacteria|Acidobacteria_~     3 FALSE    NA metronidazo~     0.150   0.271 FAIL: KW:~
    ## 4 Bacteria|Acidobacteria|Acidobacteria_~     4 FALSE    NA metronidazo~     0.150   0.271 FAIL: KW:~
    ## 5 Bacteria|Acidobacteria|Acidobacteria_~     5 FALSE    NA metronidazo~     0.150   0.271 FAIL: KW:~
    ## 6 Bacteria|Acidobacteria|Acidobacteria_~     6 FALSE    NA metronidazo~     0.150   0.271 FAIL: KW:~
    ## 7 Bacteria|Acidobacteria|Acidobacteria_~     7 FALSE    NA metronidazo~     0.150   0.271 FAIL: KW:~
    ## 8 Bacteria|Acidobacteria|Acidobacteria_~     3 FALSE    NA no metronid~     0.487  -0.103 FAIL: KW:~
    ## # ... with 1,063 more rows
…
