…
You can assign useful taxonomic data to the `ggtree` object by using the
`%<+%` operator, which is specific to the `ggtree` package. Like other
`ggplot` objects, there is actually a data frame stored within the
`ggtree` object which can be used for plotting. I like to save this as a
separate object (`gd`), which makes downstream customizations a little
easier. If you examine this, you’ll start to understand what `ggtree` is
doing.

``` r
gt <- ggtree(tr) %<+% get.tax(cid.phy)
gd <- gt$data
gd
```

    ## # A tibble: 10,653 x 16
    ##   parent  node branch.length label  isTip      x     y  branch  angle Kingdom Phylum  Class  Order  
    ##    <int> <int>         <dbl> <chr>  <lgl>  <dbl> <dbl>   <dbl>  <dbl> <chr>   <chr>   <chr>  <chr>  
    ## 1   5328     1       0.0112  Otu384 TRUE  0.0112     1 0.00559 0.0676 Bacter~ Firmic~ Clost~ Clostr~
    ## 2   5335     2       0.0147  Otu64~ TRUE  0.0182    49 0.0109  3.31   Bacter~ Firmic~ Clost~ Clostr~
    ## 3   5336     3       0.0117  Otu60~ TRUE  0.0181    50 0.0122  3.38   Bacter~ Firmic~ Clost~ Clostr~
    ## 4   5336     4       0.0115  Otu43~ TRUE  0.0179    51 0.0121  3.45   Bacter~ Firmic~ Clost~ Clostr~
    ## 5   5337     5       0.00304 Otu18~ TRUE  0.0123    47 0.0108  3.18   Bacter~ Firmic~ Clost~ Clostr~
    ## 6   5337     6       0.0142  Otu62~ TRUE  0.0235    48 0.0164  3.24   Bacter~ Firmic~ Clost~ Clostr~
    ## 7   5339     7       0.0116  Otu30~ TRUE  0.0180    52 0.0122  3.51   Bacter~ Firmic~ Clost~ Clostr~
    ## 8   5339     8       0.0116  Otu63~ TRUE  0.0180    53 0.0123  3.58   Bacter~ Firmic~ Clost~ Clostr~
    ## # ... with 10,645 more rows
…
